{
    "antifeatures": {
        "Ads": "این کاره دارای تبلیغات است",
        "DisabledAlgorithm": "این کاره یک امضای امنیتی ضعیف دارد",
        "KnownVuln": "این کاره یک آسیب‌پذیری امنیتی شناخته‌شده دارد",
        "NoSourceSince": "کد مبدأ دیگر در دسترس نیست، به‌روز رسانی ناممکن است",
        "NonFreeAdd": "این کاره، افزونه‌های غیر آزاد را تبلیغ می‌کند",
        "NonFreeAssets": "این کاره شامل ابزارهای پولی است",
        "NonFreeDep": "این کاره، به دیگر کاره‌های غیر آزاد وابسته است",
        "NonFreeNet": "این کاره، خدمات شبکه‌های غیر آزاد را تبلیغ می‌کند",
        "Tracking": "این کاره، فعّالیت‌هایتان را ردیابی و گزارش می‌کند",
        "UpstreamNonFree": "کد مبدأ بالادستی کاملاً آزاد نیست"
    },
    "index": {
        "download_fdroid": "بارگیری اف‌دروید",
        "gpg_signature": "امضای PGP",
        "introduction": "اف‌دروید یک فهرست قابل نصب از برنامه‌های کاربردی [نرم‌افزار آزاد](https://www.gnu.org/philosophy/free-sw.fa.html) برای اندروید است. اف‌دروید، مرور، نصب و ارتقا را روی دستگاهتان آسان می‌کند.",
        "screenshot": "نماگرفت کارهٔ اندروید اف‌دروید",
        "title": "اف‌دروید چیست؟"
    },
    "navigation": {
        "about": "درباره",
        "browse": "مرور",
        "contribute": "مشارکت",
        "documentation": "مستندات",
        "forum": "انجمن",
        "issues": "مشکلات",
        "news": "اخبار"
    },
    "package": {
        "added_on": "افزوده در [package_added_date]",
        "anti_features": "پادویژگی‌ها",
        "anti_features_warning": "این کاره ویژگی‌هایی دارد که شاید نپسندید.",
        "author": "نگارنده",
        "build_metadata": "فرادادهٔ ساخت",
        "changelog": "گزارش تغییرات",
        "donate": "اعانه",
        "download": "بارگیری [file_extension]",
        "flattr": "فلتر",
        "gpg_signature": "امضای PGP",
        "issue_tracker": "ردیاب مشکل",
        "liberapay": "لیبراپی",
        "license": "پروانه",
        "minimum_android_version": "این نگارش، به اندروید [android_version] یا جدیدتر نیاز دارد.",
        "new_in_version": "جدید در نگارش [latest_version]",
        "packages": "بسته‌ها",
        "permissions": "اجازه‌ها",
        "signed_by_developer": "توسّط توسعه‌دهندهٔ اصلی ساخته و امضا شده است.",
        "signed_by_fdroid": "توسّط اف‌دروید ساخته و امضا و برای مطابقت با <a href=\"[source_code_url]\">این کد مبدأ</a> تضمین شده است.",
        "source_code": "کد مبدأ",
        "suggest_downloading_via_fdroid": "با وجود موجود بودن بارگیری‌های APK برای دادن حق گزینش، باید آگاه باشید که با نصب به این روش، آگاهی‌های به‌روز رسانی را دریافت نکرده و راهی ناامن برای بارگیری است.پیشنهاد می‌شود کارهٔ اف‌دروید را نصب و از آن استفاده کنید.",
        "suggested": "پیشنهادی",
        "technical_info": "اطّلاعات فنی",
        "translation": "ترجمه",
        "version_info": "‫<b>نگارش [package_version]</b> ([package_version_code])",
        "website": "پایگاه وب"
    },
    "permissions": {
        "permdesc_acceptHandovers": "به برنامه اجازه می‌دهد تماسی را که در برنامه دیگری شروع شده ادامه دهد.",
        "permdesc_accessBackgroundLocation": "اگر این مجوز نیز برای دسترسی دقیق یا تقریبی به مکان داده شود، برنامه می‌تواند درحین اجرا در پس‌زمینه به مکان دسترسی پیدا کند.",
        "permdesc_accessCoarseLocation": "‏این برنامه می‌تواند براساس منابع شبکه مانند دکل‌های مخابراتی و شبکه‌های Wi-Fi، مکانتان را تشخیص دهد، اما فقط درصورتی‌که برنامه در پیش‌زمینه است. این خدمات مکان باید روشن و در تلفن شما دردسترس باشند تا برنامه بتواند از آن‌ها استفاده کند.",
        "permdesc_accessDrmCertificates": "‏به یک برنامه کاربردی اجازه ارائه مجوز و استفاده از گواهی‌های DRM را می‌دهد. هرگز برای برنامه‌های عادی مورد نیاز نیست.",
        "permdesc_accessFineLocation": "این برنامه فقط زمانی می‌تواند موقعیت مکانی دقیق شما را دریافت کند که در پیش‌زمینه باشد. برای اینکه برنامه بتواند از خدمات مکان استفاده کند، این خدمات باید در تلفنتان روشن و دردسترس باشد. ممکن است با این کار مصرف باتری افزایش یابد.",
        "permdesc_accessImsCallService": "‏به برنامه اجازه می‌دهد از سرویس IMS برای برقراری تماس‌ها بدون دخالت شما استفاده کند.",
        "permdesc_accessLocationExtraCommands": "‏به برنامه اجازه می‌دهد به دستورات ارائه‌دهنده مکان تکمیلی دسترسی داشته باشد. این کار ممکن است به برنامه امکان دهد با کارکرد GPS یا منابع دیگر مکان تداخل داشته باشد.",
        "permdesc_accessNetworkConditions": "به برنامه امکان می‌دهد برای بررسی شرایط شبکه گوش دهد. این امکان هرگز نباید برای برنامه‌های معمولی مورد نیاز باشد.",
        "permdesc_accessNetworkState": "به برنامه امکان می‌دهد اطلاعات مربوط به اتصالات شبکه مانند شبکه‌های موجود و متصل را مشاهده کند.",
        "permdesc_accessNotifications": "به برنامه اجازه می‌دهد به بازیابی، بررسی و پاک کردن اعلان‌ها از جمله موارد پست شده توسط سایر برنامه‌ها بپردازد.",
        "permdesc_accessWifiState": "‏به برنامه امکان می‌دهد اطلاعات مربوط به شبکه Wi-Fi را مشاهده کند، به‌عنوان مثال فعال بودن Wi-Fi و نام دستگاه‌های Wi-Fi متصل.",
        "permdesc_accessWimaxState": "به برنامه امکان می‌دهد فعال بودن وایمکس و اطلاعات مربوط به هر یک از شبکه‌های وایمکس متصل را مشخص کند.",
        "permdesc_access_notification_policy": "به برنامه امکان می‌دهد پیکربندی «مزاحم نشوید» را بخواند و بنویسد.",
        "permdesc_activityRecognition": "این برنامه می‌تواند فعالیت فیزیکی‌تان را تشخیص دهد.",
        "permdesc_addVoicemail": "به برنامه اجازه می‌دهد تا پیام‌ها را به صندوق ورودی پست صوتی شما اضافه کند.",
        "permdesc_answerPhoneCalls": "می‌گذارد کاره به تماس تلفنی ورودی پاسخ دهد.",
        "permdesc_audioWrite": "می‌گذارد کاره مجموعهٔ آهنگتان را تغییر دهد.",
        "permdesc_bindCarrierMessagingService": "به کنترل‌کننده اجازه می‌دهد که به سطح بالای رابط کاربر سرویس پیام‌رسانی شرکت مخابراتی مقید شود. هرگز نباید برای برنامه‌های عادی مورد نیاز شود.",
        "permdesc_bindCarrierServices": "به دارنده امکان می‌دهد به سرویس‌های شرکت مخابراتی متصل شود. هرگز نباید برای برنامه‌های عادی مورد نیاز باشد.",
        "permdesc_bindConditionProviderService": "به دارنده امکان می‌دهد تا به واسط سطح بالای سرویس ارائه‌دهنده وضعیت مقید باشد. برای برنامه‌های عادی هرگز نباید لازم باشد.",
        "permdesc_bindDreamService": "به برنامه اجازه می‌دهد که به رابط سطح بالای سرویس موردنظر متصل شود. هرگز نباید برای برنامه‌های معمولی مورد نیاز باشد.",
        "permdesc_bindNotificationListenerService": "به دارنده اجازه می‌دهد به یک رابط سطح بالای سرویس شنونده اعلان متصل شود. هرگز نباید برای برنامه‌های عادی لازم شود.",
        "permdesc_bind_connection_service": "به برنامه اجازه می‌دهد جهت برقراری/دریافت تماس با سرویس‌های تلفنی تعامل داشته باشد.",
        "permdesc_bind_incall_service": "به برنامه امکان می‌دهد کنترل کند که کاربر چه زمانی و چگونه صفحه‌نمایش هنگام تماس را مشاهده کند.",
        "permdesc_bluetooth": "‏به برنامه اجازه می‎دهد تا پیکربندی بلوتوث در تلفن را مشاهده کند، و اتصالات دستگاه‌های مرتبط را برقرار کرده و بپذیرد.",
        "permdesc_bluetoothAdmin": "‏به برنامه اجازه می‎دهد تا تلفن بلوتوث محلی را پیکربندی کند و دستگاه‌های راه دور را پیدا کند و با آن‌ها مرتبط‌سازی شود.",
        "permdesc_bodySensors": "به برنامه امکان می‌دهد به اطلاعات حسگرهایی که بر شرایط فیزیکی شما مانند ضربان قلبتان، نظارت دارند، دسترسی داشته باشد.",
        "permdesc_broadcastSticky": "‏به برنامه اجازه می‎دهد تا پخش‌های ماندگار را که پس از اتمام پخش باقی می‎مانند ارسال کند. استفاده بیش از حد این ویژگی ممکن است باعث مصرف بیش از حد حافظه و در نتیجه کندی یا ناپایداری تلفن شود.",
        "permdesc_callCompanionApp": "به برنامه‌ها اجازه می‌دهد تماس‌های درحال انجام را در این دستگاه ببیند و کنترل کند. این مورد شامل اطلاعاتی مانند شماره تلفن برای تماس‌ها و وضعیت تماس‌ها است.",
        "permdesc_callPhone": "به برنامه اجازه می‌دهد بدون دخالت شما با شماره‌های تلفن تماس بگیرد. این ممکن است باعث ایجاد هزینه یا تماس‌های پیش‌بینی نشده شود. توجه داشته باشید که این به برنامه اجازه نمی‌دهد به برقراری تماس‌های اضطراری بپردازد. برنامه‌های مخرب ممکن است با برقراری تماس بدون تأیید شما هزینه‌هایی را برای شما ایجاد کنند.",
        "permdesc_camera": "این برنامه می‌تواند در هرزمانی با استفاده از دوربین عکس و فیلم بگیرد.",
        "permdesc_changeNetworkState": "‏به برنامه اجازه می‎دهد تا وضعیت اتصال شبکه را تغییر دهد.",
        "permdesc_changeTetherState": "‏به برنامه اجازه می‎دهد تا وضعیت اتصال شبکه اتصال داده با سیم را تغییر دهد.",
        "permdesc_changeWifiMulticastState": "‏به برنامه اجازه می‌دهد به دریافت بسته‌های ارسالی به همه دستگاه‌های موجود در شبکه Wi-Fi با استفاده از آدرس‌های پخش چندگانه و نه فقط به تلفن شما بپردازند. این از توان مصرف بیشتری نسبت به حالت پخش غیرچندگانه استفاده می‌کند.",
        "permdesc_changeWifiState": "‏به برنامه اجازه می‎دهد تا به نقاط دسترسی Wi-Fi وصل شود و ارتباط خود را با آن‌ها قطع کند و تغییراتی را در پیکربندی دستگاه برای شبکه‎های Wi-Fi ایجاد کند.",
        "permdesc_changeWimaxState": "‏به برنامه امکان می‎دهد تا تلفن را به شبکه‌های وایمکس متصل کرده یا اتصال آنرا از این شبکه‌ها قطع کند.",
        "permdesc_connection_manager": "به برنامه امکان می‌دهد ارتباطات مخابراتی را مدیریت کند.",
        "permdesc_control_incall_experience": "به برنامه امکان می‌دهد تجربه کاربر در حال تماس را ارائه دهد.",
        "permdesc_createNetworkSockets": "به برنامه امکان می‌دهد سوکت‌های شبکه را ایجاد کند و از پروتکل‌های شبکه سفارشی استفاده نماید. مرورگر و سایر برنامه‌ها روشی را برای ارسال داده‌ها به اینترنت ارائه می‌کنند بنابراین این مجوز برای ارسال داده به اینترنت ضروری نیست.",
        "permdesc_disableKeyguard": "به برنامه امکان می‌دهد قفل کلید و هر گونه امنیت گذرواژه مرتبط را غیرفعال کند. به‌عنوان مثال تلفن هنگام دریافت یک تماس تلفنی ورودی قفل کلید را غیرفعال می‌کند و بعد از پایان تماس، قفل کلید را دوباره فعال می‌کند.",
        "permdesc_enableCarMode": "‏به برنامه اجازه می‎دهد تا حالت خودرو را فعال کند.",
        "permdesc_expandStatusBar": "‏به برنامه اجازه می‎دهد تا نوار ابزار را جمع کند یا باز کند.",
        "permdesc_foregroundService": "به برنامه اجازه می‌دهد از سرویس‌های پیش‌زمینه استفاده کند.",
        "permdesc_getAccounts": "به برنامه اجازه می‌دهد به فهرست حساب‌های شناخته شده توسط تلفن دسترسی پیدا کند. این ممکن است حسا‌ب‌های ایجاد شده توسط برنامه‌هایی را که نصب کرده‌اید، شامل شود.",
        "permdesc_getPackageSize": "‏به برنامه اجازه می‎دهد تا کدها، داده‎ها و اندازه‎های حافظهٔ پنهان خود را بازیابی کند",
        "permdesc_getTasks": "به برنامه امکان می‌دهد اطلاعات مربوط به کارهای در حال اجرای اخیر و کنونی را بازیابی کند. این ممکن است به برنامه امکان دهد به اطلاعات مربوط به برنامه‌هایی که در دستگاه استفاده می‌شوند دست یابد.",
        "permdesc_handoverStatus": "‏به برنامه امکان می‌دهد تا اطلاعاتی درباره انتقال‌های کنونی Android Beam به‌دست آورد",
        "permdesc_imagesWrite": "به برنامه اجازه می‌دهد مجموعه عکستان را تغییر دهد.",
        "permdesc_install_shortcut": "به برنامه اجازه می‌دهد میان‌برهای صفحه اصلی را بدون دخالت کاربر اضافه کند.",
        "permdesc_invokeCarrierSetup": "به دارنده اجازه می‌دهد که تنظیمات برنامه شرکت مخابراتی را لغو کند. هرگز برای برنامه‌های معمولی مورد نیاز نیست.",
        "permdesc_killBackgroundProcesses": "به برنامه امکان می‌دهد به فرآیندهای پس‌زمینه سایر برنامه‌ها پایان دهد. این ممکن است باعث شود سایر برنامه‌ها متوقف شوند.",
        "permdesc_manageFace": "به برنامه امکان می‌دهد روش‌هایی را برای افزودن و حذف الگوهای چهره جهت استفاده فرابخواند.",
        "permdesc_manageFingerprint": "به برنامه امکان می‌دهد روش‌هایی را برای افزودن و حذف الگوهای اثر انگشت جهت استفاده، فعال کند.",
        "permdesc_manageNetworkPolicy": "‏به برنامه اجازه می‎دهد تا خط‌مشی‎های شبکه را مدیریت کند و قوانین خاص برنامه را تعیین کند.",
        "permdesc_manageOwnCalls": "به برنامه امکان می‌دهد برای بهبود تجربه تماس، تماس‌هایش را ازطریق سیستم برقرار کند.",
        "permdesc_manageProfileAndDeviceOwners": "به برنامه‌ها امکان می‌دهد، مالکان نمایه و مالک دستگاه را تنظیم کنند.",
        "permdesc_mediaLocation": "می‌گذارد کاره، موقعیت‌ها را از مجموعهٔ رسانه‌تان بخواند.",
        "permdesc_modifyAudioSettings": "به برنامه امکان می‌دهد تنظیمات صوتی کلی مانند میزان صدا و بلندگوی مورد استفاده برای پخش صدا را تغییر دهد.",
        "permdesc_modifyNetworkAccounting": "‏به برنامه اجازه می‎دهد تا نحوه محاسبه کاربرد شبکه در برنامه را تغییر دهد. برای استفاده برنامه‎های عادی نیست.",
        "permdesc_nfc": "‏به برنامه اجازه می‎دهد تا با تگ‌های «ارتباط میدان نزدیک» (NFC)، کارت‌ها و فایل‌خوان ارتباط برقرار کند.",
        "permdesc_persistentActivity": "به برنامه امکان می‌دهد قسمت‌هایی از خود را در حافظه دائمی کند. این کار حافظه موجود را برای سایر برنامه‌ها محدود کرده و باعث کندی تلفن می‌شود.",
        "permdesc_processOutgoingCalls": "به برنامه اجازه می‌دهد عددی را که در طی یک تماس خروجی شماره‌گیری شده، ببیند و این اختیار را دارد که تماس را به شماره دیگری هدایت کند یا کلاً تماس را قطع کند.",
        "permdesc_readCalendar": "این برنامه می‌تواند همه رویدادهای تقویم ذخیره‌شده در تلفن شما را بخواند و داده‌های تقویم شما را به اشتراک بگذارد یا ذخیره کند.",
        "permdesc_readCallLog": "این برنامه می‌تواند سابقه تماس شما را بخواند.",
        "permdesc_readCellBroadcasts": "‏به برنامه اجازه می‎دهد پیام‌های پخش سلولی دستگاه شما را بخواند. هشدارهای پخش سلولی در برخی از موقعیت‌های مکانی تحویل داده می‎شوند تا موقعیت‌های اضطراری را به شما اعلام کنند. وقتی پخش سلولی دریافت می‎شود، ممکن است برنامه‎های مخرب در عملکرد یا کارکرد دستگاه شما اختلال ایجاد کنند.",
        "permdesc_readContacts": "به برنامه اجازه می‌دهد داده‌های مربوط به مخاطبین ذخیره شده در تلفن شما را بخواند از جمله، تعداد دفعات تماس‌هایی که برقرار کرده‌اید، ایمیل‌هایی که ارسال کرده‌اید یا به روش‌های دیگری با افراد خاصی ارتباط برقرار کرده‌اید. این به برنامه‌ها امکان می‌دهد داده‌های مخاطب شما را ذخیره کنند و برنامه‌های مخرب ممکن است داده‌های مخاطب را بدون اطلاع شما به اشتراک بگذارند.",
        "permdesc_readHistoryBookmarks": "به برنامه اجازه می‌دهد سابقه نشانی‌های وب را که مرورگر بازدید کرده است و همه نشانک‌های مرورگر را بخواند. توجه: این مجوز توسط مرورگرهای شخص ثالث یا سایر برنامه‌های دارای قابلیت مرور وب قابل اجرا نیست.",
        "permdesc_readInstallSessions": "به برنامه اجازه می‌دهد جلسات نصب را بخواند. این کار به برنامه اجازه می‌دهد جزئیات نصب‌های بسته فعال را ببیند.",
        "permdesc_readNetworkUsageHistory": "‏به برنامه اجازه می‎دهد تا کاربرد شبکه را در طول زمان برای برنامه‎ها و شبکه‎های خاص بخواند.",
        "permdesc_readPhoneNumbers": "به برنامه امکان می‌دهد به شماره تلفن‌های دستگاه دسترسی داشته باشد.",
        "permdesc_readPhoneState": "به برنامه اجازه می‌دهد به ویژگی‌های تلفن دستگاه شما دسترسی پیدا کند. این مجوز به برنامه اجازه می‌دهد شماره تلفن و شناسه‌های دستگاه، فعال بودن یک تماس و شماره راه دوری که با یک تماس متصل شده است را مشخص کند.",
        "permdesc_readSms": "این برنامه می‌تواند همه پیامک‌های ذخیره‌شده در تلفن شما را بخواند.",
        "permdesc_readSyncSettings": "به برنامه اجازه می‌دهد تنظیمات را برای یک حساب بخواند. به‌عنوان مثال، این ویژگی می‌تواند تعیین کند آیا حساب «افراد» شما با یک حساب همگام‌سازی شده است.",
        "permdesc_readSyncStats": "به یک برنامه اجازه می‌دهد وضعیت همگام‌سازی یک حساب را بخواند، از جمله سابقه رویدادهای همگام‌سازی و میزان داده‌های همگام‌سازی شده.",
        "permdesc_receiveBootCompleted": "به برنامه اجازه می‌دهد که به محض پایان راه‌اندازی سیستم، راه‌اندازی شود. این ویژگی ممکن است باعث شود راه‌اندازی دستگاه مدت زمان بیشتری طول بکشد و به برنامه اجازه می‌دهد با همیشه درحال اجرا بودنش باعث کاهش سرعت کلی دستگاه شود.",
        "permdesc_receiveMms": "به برنامه اجازه می‌دهد پیام‌های فراپیام را دریافت و پردازش کند. این یعنی برنامه می‌تواند پیام‌های ارسالی به دستگاه شما را بدون نمایش آن‌ها به شما حذف یا کنترل کند.",
        "permdesc_receiveSms": "به برنامه اجازه می‌دهد پیامک‌ها را دریافت و پردازش کند. این یعنی برنامه می‌تواند پیام‌های ارسالی به دستگاه شما را بدون نمایش آن‌ها به شما حذف یا کنترل کند.",
        "permdesc_receiveWapPush": "‏به برنامه اجازه می‌دهد پیام‌های WAP را دریافت و پردازش کند. این مجوز می‌تواند پیام‌های ارسالی به شما را بدون نمایش آن‌ها به شما حذف یا کنترل کند.",
        "permdesc_recordAudio": "این برنامه می‌تواند در هرزمانی با استفاده از میکروفون صدا ضبط کند.",
        "permdesc_register_call_provider": "به برنامه اجازه می‌دهد ارتباطات مخابراتی جدیدی ثبت کند.",
        "permdesc_register_sim_subscription": "به برنامه اجازه می‌دهد ارتباطات سیم کارت مخابراتی جدیدی ثبت کند.",
        "permdesc_removeDrmCertificates": "‏به برنامه امکان می‌دهد گواهی‌های DRM را حذف کند. نباید برای برنامه‌های عادی هیچ‌وقت لازم باشد.",
        "permdesc_reorderTasks": "‏به برنامه اجازه می‎دهد تا کارها را به پیش‌زمینه و پس‌زمینه منتقل کند. برنامه‎ ممکن است بدون دخالت شما این کار را انجام دهد.",
        "permdesc_requestDeletePackages": "به برنامه اجازه می‌دهد حذف بسته‌ها را درخواست کند.",
        "permdesc_requestIgnoreBatteryOptimizations": "به یک برنامه اجازه می‌دهد جهت نادیده گرفتن بهینه‌سازی باتری برای خود مجوز درخواست کند.",
        "permdesc_requestInstallPackages": "به برنامه اجازه می‌دهد درخواست نصب بسته‌بندی کند.",
        "permdesc_requestPasswordComplexity": "می‌گذارد کاره سطح پیچیدگی قفل صفحه (بالا، متوسط، پایین، یا هیچ‌کدام) را بیاموزد که نشان‌دهنده بازه ممکن طول و نوع قفل صفحه است. همچنین برنامه می‌تواند به کاربران پیشنهاد دهد قفل صفحه را به سطح خاصی به‌روزرسانی کنند، اما کاربران می‌توانند آزادانه این پیشنهاد را نادیده گرفته و به سطح دیگری بروند. توجه داشته باشید که قفل صفحه در قالب نوشتار ساده ذخیره نمی‌شود، بنابراین برنامه گذرواژهٔ دقیق را نمی‌داند.",
        "permdesc_route_media_output": "به یک برنامه اجازه می‌دهد خروجی رسانه را به دستگاه‌های خارجی دیگر تعیین مسیر کند.",
        "permdesc_runInBackground": "این برنامه می‌تواند در پس‌زمینه اجرا شود. ممکن است شارژ باتری زودتر مصرف شود.",
        "permdesc_sdcardRead": "به برنامه اجازه می‌دهد محتوای فضای ذخیره هم‌رسانی‌شده‌تان را بخواند.",
        "permdesc_sdcardWrite": "به برنامه اجازه می‌دهد محتوای فضای ذخیره هم‌رسانی‌شده‌تان را بنویسد.",
        "permdesc_sendSms": "به برنامه اجازه می‌دهد پیامک‌ها را ارسال کند. این باعث ایجاد هزینه‌های پیش‌بینی نشده می‌شود. برنامه‌های مخرب ممکن است با ارسال پیام بدون تأیید شما هزینه‌هایی را برای شما ایجاد کنند.",
        "permdesc_setAlarm": "‏به برنامه اجازه می‎دهد تا زنگی را در برنامه ساعت زنگدار نصب‌شده تنظیم کند. برخی از برنامه‎های ساعت زنگدار نمی‌‎توانند این ویژگی را اعمال کنند.",
        "permdesc_setInputCalibration": "به برنامه امکان می‌دهد پارامترهای کالیبراسیون صفحه لمسی را تغییر دهد. هرگز نباید برای برنامه‌های عادی مورد نیاز باشد.",
        "permdesc_setTimeZone": "‏به برنامه اجازه می‎دهد تا منطقهٔ زمانی تلفن را تغییر دهد.",
        "permdesc_setWallpaper": "‏به برنامه اجازه می‎دهد تا کاغذدیواری سیستم را تنظیم کند.",
        "permdesc_setWallpaperHints": "‏به برنامه اجازه می‎دهد تا نکات اندازه کاغذدیواری سیستم را تنظیم کند.",
        "permdesc_sim_communication": "به برنامه اجازه ارسال دستورات به سیم کارت را می‌دهد. این بسیار خطرناک است.",
        "permdesc_startViewPermissionUsage": "اجازهٔ شروع استفاده از مجوز را برای یک کاره، به دارنده می‌دهد. هرگز برای برنامه‌های معمول نیاز نیست.",
        "permdesc_statusBar": "‏به برنامه اجازه می‎دهد تا نوار وضعیت را غیرفعال کند یا نمادهای سیستم را اضافه یا حذف کند.",
        "permdesc_statusBarService": "‏به برنامه اجازه می‎دهد که تبدیل به نوار وضعیت شود.",
        "permdesc_subscribedFeedsRead": "‏به برنامه اجازه می‎دهد تا جزئیات مربوط به فیدهای همگام شده کنونی را دریافت کند.",
        "permdesc_systemAlertWindow": "این برنامه می‌تواند روی برنامه‌های دیگر یا سایر قسمت‌های صفحه ظاهر شود. ممکن است در عملکرد معمول برنامه‌های دیگر اختلال ایجاد کند و شیوه نمایش آن‌ها را تغییر دهد.",
        "permdesc_transmitIr": "به برنامه اجازه می‌دهد تا از فرستنده مادون قرمز تلفن استفاده کند.",
        "permdesc_uninstall_shortcut": "به برنامه اجازه می‌دهد میان‌برهای صفحه اصلی را بدون دخالت کاربر حذف کند.",
        "permdesc_useBiometric": "به برنامه امکان می‌دهد از سخت‌افزار بیومتریک برای احراز هویت استفاده کند",
        "permdesc_useDataInBackground": "این برنامه می‌تواند در پس‌زمینه داده مصرف کند. ممکن است مصرف داده افزایش یابد.",
        "permdesc_useFaceAuthentication": "می‌گذارد کاره از سخت‌افزار احراز هویت با چهره برای احراز هویت استفاده کند",
        "permdesc_useFingerprint": "به برنامه امکان می‌دهد از سخت‌افزار اثر انگشت برای احراز هویت استفاده کند",
        "permdesc_use_sip": "‏به برنامه اجازه می‌دهد تماس‌های SIP بگیرد یا دریافت کند.",
        "permdesc_vibrate": "‏به برنامه اجازه می‎دهد تا لرزاننده را کنترل کند.",
        "permdesc_videoWrite": "می‌گذارد کاره مجموعهٔ ویدیویتان را تغییر دهد.",
        "permdesc_wakeLock": "‏به برنامه اجازه می‎دهد تا از غیرفعال شدن تلفن جلوگیری کند.",
        "permdesc_writeCalendar": "این برنامه می‌تواند در تلفن شما رویدادهای تقویم اضافه کند، آن‌ها را حذف کند یا تغییر دهد. این برنامه می‌تواند پیام‌هایی ارسال کند که گویی از طرف مالکان تقویم هستند یا رویدادها را بدون اطلاع مالکان تغییر دهد.",
        "permdesc_writeCallLog": "‏به برنامه اجازه می‌دهد گزارشات تماس تلفنی شما، از جمله داده‌هایی درمورد تماس‎های ورودی و خروجی را تغییر دهد. برنامه‌های مخرب ممکن است از این ویژگی برای پاک کردن یا تغییر گزارش تماس شما استفاده کنند.",
        "permdesc_writeContacts": "به برنامه اجازه می‌دهد داده‌های مربوط به مخاطبین ذخیره شده در تلفن شما را از جمله تعداد تماس‌‌هایی که برقرار کرده‌اید، ایمیل‌هایی که ارسال کرده‌اید یا ارتباطاتی را که به هر شکل با مخاطبین خاصی برقرار کردید تغییر دهد. این مجوز به برنامه اجازه می‌دهد داده‌های مخاطب را حذف نماید.",
        "permdesc_writeGeolocationPermissions": "‏به برنامه اجازه می‎دهد تا مجوزهای جغرافیایی مرورگر را تغییر دهد. برنامه‎های مخرب می‎توانند از آن استفاده کنند تا اطلاعات موقعیت مکانی را به سایت‌های وب کتابخانه بفرستند.",
        "permdesc_writeHistoryBookmarks": "به برنامه اجازه می‌دهد سابقه مرورگر یا نشانک‌های ذخیره‌شده در تلفن شما را تغییر دهد. این ممکن است به برنامه اجازه دهد داده‌های مرورگر را حذف کند یا تغییر دهد. توجه: این مجوز ممکن است توسط مرورگرهای شخص ثالث یا سایر برنامه‌های دارای قابلیت مرور وب قابل اجرا نباشد.",
        "permdesc_writeSettings": "‏به برنامه اجازه می‎دهد تا داده‎های تنظیم سیستم را تغییر دهد. برنامه‎های مخرب می‎توانند پیکربندی سیستم شما را خراب کنند.",
        "permdesc_writeSyncSettings": "به برنامه اجازه می‌دهد تنظیمات همگام‌سازی را برای حساب تغییر دهد. به‌عنوان مثال، از این ویژگی می‌توان برای فعال کردن همگام‌سازی برنامه «افراد» با یک حساب استفاده کرد.",
        "permgroupbackgroundrequest_location": "اجازهٔ <b>",
        "permgroupbackgroundrequestdetail_location": "در حال حاضر کاره، فقط وقتی از آن استفاده می‌کنید، می‌تواند به موقعیت دسترسی یابد",
        "permgroupdesc_activityRecognition": "دسترسی به فعّالیت فیزیکیتان",
        "permgroupdesc_calendar": "دسترسی به تقویم شما",
        "permgroupdesc_calllog": "خواندن و نوشتن گزارش تماس تلفنی",
        "permgroupdesc_camera": "عکس گرفتن و فیلم‌برداری",
        "permgroupdesc_contacts": "دسترسی به مخاطبین شما",
        "permgroupdesc_location": "دسترسی به موقعیت مکانی این دستگاه",
        "permgroupdesc_microphone": "ضبط صدا",
        "permgroupdesc_phone": "برقراری و مدیریت تماس‌های تلفنی",
        "permgroupdesc_sensors": "دسترسی به داده‌های حسگر در رابطه با علائم حیاتی شما",
        "permgroupdesc_sms": "ارسال و مشاهده پیامک‌ها",
        "permgroupdesc_storage": "دسترسی به عکس‌ها، رسانه‌ها و فایل‌های روی دستگاهتان",
        "permgrouplab_activityRecognition": "فعّالیت فیزیکی",
        "permgrouplab_calendar": "تقویم",
        "permgrouplab_calllog": "گزارش‌های تماس",
        "permgrouplab_camera": "دوربین",
        "permgrouplab_contacts": "مخاطبین",
        "permgrouplab_location": "مکان",
        "permgrouplab_microphone": "میکروفن",
        "permgrouplab_phone": "تلفن",
        "permgrouplab_sensors": "حسگرهای بدنی",
        "permgrouplab_sms": "پیامک",
        "permgrouplab_storage": "حافظه",
        "permgrouprequest_activityRecognition": "‏اجازهٔ <b>",
        "permgrouprequest_calendar": "‏به <b>",
        "permgrouprequest_calllog": "‏به <b>",
        "permgrouprequest_camera": "‏به <b>",
        "permgrouprequest_contacts": "‏به <b>",
        "permgrouprequest_location": "‏به <b>",
        "permgrouprequest_microphone": "‏به </b>",
        "permgrouprequest_phone": "‏به <b>",
        "permgrouprequest_sensors": "‏به <b>",
        "permgrouprequest_sms": "‏به <b>",
        "permgrouprequest_storage": "‏به برنامه <b>",
        "permgrouprequestdetail_location": "کاره فقط وقتی از آن استفاده می‌کنید، به موقعیت دسترسی خواهد داشت",
        "permlab_acceptHandover": "ادامه دادن تماس از برنامه‌ای دیگر",
        "permlab_accessBackgroundLocation": "دسترسی به موقعیت در پس‌زمینه",
        "permlab_accessCoarseLocation": "دسترسی به مکان تقریبی (مبتنی بر شبکه) فقط در پیش‌زمینه",
        "permlab_accessDrmCertificates": "‏دسترسی به گواهی‌های DRM",
        "permlab_accessFineLocation": "دسترسی به مکان دقیق فقط در پیش‌زمینه",
        "permlab_accessImsCallService": "‏دسترسی به سرویس تماس IMS",
        "permlab_accessLocationExtraCommands": "دسترسی به فرمان‌های بیشتر ارائه دهنده مکان",
        "permlab_accessNetworkConditions": "گوش دادن برای بررسی شرایط شبکه",
        "permlab_accessNetworkState": "مشاهدهٔ اتصالات شبکه",
        "permlab_accessNotifications": "اعلان‌های دسترسی",
        "permlab_accessWifiState": "‏مشاهدهٔ اتصالات Wi-Fi",
        "permlab_accessWimaxState": "‏اتصال و قطع اتصال از WiMAX",
        "permlab_access_notification_policy": "دسترسی به حالت «مزاحم نشوید»",
        "permlab_activityRecognition": "تشخیص فعّالیت فیزیکی",
        "permlab_addVoicemail": "افزودن پست صوتی",
        "permlab_answerPhoneCalls": "پاسخ دادن به تماس‌های تلفنی",
        "permlab_audioWrite": "تغییر مجموعهٔ آهنگتان",
        "permlab_bindCarrierMessagingService": "مقید به سرویس پیام‌رسانی شرکت مخابراتی",
        "permlab_bindCarrierServices": "اتصال به سرویس‌های شرکت مخابراتی",
        "permlab_bindConditionProviderService": "مقید بودن به سرویس ارائه‌دهنده وضعیت",
        "permlab_bindDreamService": "اتصال به سرویس موردنظر",
        "permlab_bindNotificationListenerService": "اتصال به یک سرویس شنونده اعلان",
        "permlab_bind_connection_service": "تعامل با سرویس‌های تلفنی",
        "permlab_bind_incall_service": "تعامل با صفحه‌نمایش هنگام تماس",
        "permlab_bluetooth": "مرتبط‌سازی با دستگاه‌های بلوتوث",
        "permlab_bluetoothAdmin": "دسترسی به تنظیمات بلوتوث",
        "permlab_bodySensors": "دسترسی به حسگرهای بدن (مانند پایشگرهای ضربان قلب)",
        "permlab_broadcastSticky": "ارسال پخش چسبنده",
        "permlab_callCompanionApp": "دیدن و واپایش تماس‌ها ازطریق سامانه.",
        "permlab_callPhone": "تماس مستقیم با شماره تلفن‌ها",
        "permlab_camera": "عکسبرداری و فیلمبرداری",
        "permlab_changeNetworkState": "تغییر قابلیت اتصال شبکه",
        "permlab_changeTetherState": "تغییر قابلیت اتصال داده با سیم",
        "permlab_changeWifiMulticastState": "‏دریافت چندگانه Wi-Fi را مجاز می‌کند",
        "permlab_changeWifiState": "‏اتصال به Wi-Fi و قطع اتصال از آن",
        "permlab_changeWimaxState": "‏تغییر وضعیت WiMAX",
        "permlab_connection_manager": "مدیریت ارتباطات مخابراتی",
        "permlab_control_incall_experience": "ارائه یک تجربه کاربری هنگام تماس",
        "permlab_createNetworkSockets": "دسترسی کامل به شبکه",
        "permlab_disableKeyguard": "غیرفعال کردن قفل صفحه شما",
        "permlab_enableCarMode": "فعال کردن حالت خودرو",
        "permlab_expandStatusBar": "گسترش دادن/جمع کردن نوار وضعیت",
        "permlab_foregroundService": "اجرای سرویس پیش‌زمینه",
        "permlab_getAccounts": "یافتن حساب‌ها در دستگاه",
        "permlab_getPackageSize": "اندازه گیری فضای حافظه برنامه",
        "permlab_getTasks": "‏بازیابی برنامه‎های در حال اجرا",
        "permlab_handoverStatus": "‏دریافت وضعیت انتقال Android Beam",
        "permlab_imagesWrite": "تغییر مجموعهٔ عکستان",
        "permlab_install_shortcut": "نصب میان‌برها",
        "permlab_invokeCarrierSetup": "لغو برنامه پیکربندی ارائه شده توسط شرکت مخابراتی",
        "permlab_killBackgroundProcesses": "بستن سایر برنامه‌ها",
        "permlab_manageFace": "مدیریت سخت‌افزار احراز هویت با چهره",
        "permlab_manageFingerprint": "مدیریت سخت‌افزار اثر انگشت",
        "permlab_manageNetworkPolicy": "مدیریت خط‌مشی شبکه",
        "permlab_manageOwnCalls": "برقرار کردن تماس‌ها ازطریق سیستم",
        "permlab_manageProfileAndDeviceOwners": "مدیریت نمایه و مالکان دستگاه",
        "permlab_mediaLocation": "خواندن موقعیت‌ها از مجموعه رسانه‌تان",
        "permlab_modifyAudioSettings": "تغییر تنظیمات صوتی",
        "permlab_modifyNetworkAccounting": "تغییر محاسبه استفاده از شبکه",
        "permlab_nfc": "کنترل ارتباط راه نزدیک",
        "permlab_persistentActivity": "همیشه برنامه اجرا شود",
        "permlab_processOutgoingCalls": "ترسیم مجدد مسیر تماس‌های خروجی",
        "permlab_readCalendar": "خواندن رویدادها و جزئیات تقویم",
        "permlab_readCallLog": "خواندن گزارش تماس",
        "permlab_readCellBroadcasts": "خواندن پیام‌های پخش سلولی",
        "permlab_readContacts": "خواندن مخاطبین شما",
        "permlab_readHistoryBookmarks": "خواندن سابقه و نشانک‌های وب شما",
        "permlab_readInstallSessions": "خواندن جلسات نصب",
        "permlab_readNetworkUsageHistory": "خواندن سابقه استفاده از شبکه",
        "permlab_readPhoneNumbers": "خواندن شماره تلفن‌ها",
        "permlab_readPhoneState": "خواندن وضعیت تلفن و شناسه",
        "permlab_readSms": "خواندن پیام‌های نوشتاری شما (پیامک یا فراپیام)",
        "permlab_readSyncSettings": "خواندن تنظیمات همگام‌سازی",
        "permlab_readSyncStats": "خواندن اطلاعات آماری همگام‌سازی",
        "permlab_receiveBootCompleted": "اجرا شدن در هنگام راه‌اندازی",
        "permlab_receiveMms": "دریافت پیام‌های نوشتاری (فراپیام)",
        "permlab_receiveSms": "دریافت پیام‌های نوشتاری (پیامک)",
        "permlab_receiveWapPush": "‏دریافت پیام‌های نوشتاری (WAP)",
        "permlab_recordAudio": "ضبط صدا",
        "permlab_register_call_provider": "ثبت ارتباطات مخابراتی جدید",
        "permlab_register_sim_subscription": "ثبت ارتباطات سیم کارت مخابراتی جدید",
        "permlab_removeDrmCertificates": "‏حذف گواهی‌های DRM",
        "permlab_reorderTasks": "‏تنظیم مجدد ترتیب برنامه‎های در حال اجرا",
        "permlab_requestDeletePackages": "درخواست حذف بسته‌ها",
        "permlab_requestIgnoreBatteryOptimizations": "درخواست نادیده‌گرفتن بهینه‌سازی باتری",
        "permlab_requestInstallPackages": "درخواست نصب بسته",
        "permlab_requestPasswordComplexity": "درخواست پیچیدگی قفل صفحه",
        "permlab_route_media_output": "تعیین مسیر خروجی رسانه",
        "permlab_runInBackground": "اجرا شدن در پس‌زمینه",
        "permlab_sdcardRead": "خواندن محتوای فضای ذخیره هم‌رسانی‌شده",
        "permlab_sdcardWrite": "تغییر یا حذف محتوای فضای ذخیره هم‌رسانی‌شده",
        "permlab_sendSms": "ارسال و نمایش پیام‌های پیامک",
        "permlab_setAlarm": "تنظیم زنگ",
        "permlab_setInputCalibration": "تغییر کالیبراسیون دستگاه ورودی",
        "permlab_setTimeZone": "تنظیم منطقهٔ زمانی",
        "permlab_setWallpaper": "تنظیم کاغذدیواری",
        "permlab_setWallpaperHints": "تنظیم اندازه کاغذدیواری",
        "permlab_sim_communication": "ارسال فرمان به سیم کارت",
        "permlab_startViewPermissionUsage": "شروع مشاهدهٔ استفاده از مجوز",
        "permlab_statusBar": "غیرفعال کردن یا تغییر نوار وضعیت",
        "permlab_statusBarService": "نوار وضعیت باشد",
        "permlab_subscribedFeedsRead": "خواندن فیدهای مشترک",
        "permlab_systemAlertWindow": "این برنامه می‌تواند روی برنامه‌های دیگر ظاهر شود",
        "permlab_transmitIr": "ارسال مادون قرمز",
        "permlab_uninstall_shortcut": "حذف نصب میان‌برها",
        "permlab_useBiometric": "استفاده از سخت‌افزار بیومتریک",
        "permlab_useDataInBackground": "مصرف داده در پس‌زمینه",
        "permlab_useFaceAuthentication": "استفاده از سخت‌افزار احراز هویت با چهره",
        "permlab_useFingerprint": "استفاده از سخت‌افزار اثر انگشت",
        "permlab_use_sip": "‏تماس گرفتن/دریافت تماس از طریق SIP",
        "permlab_vibrate": "کنترل لرزش",
        "permlab_videoWrite": "تغییر مجموعهٔ ویدیویتان",
        "permlab_wakeLock": "ممانعت از به خواب رفتن تلفن",
        "permlab_writeCalendar": "افزودن یا تغییر رویدادهای تقویم و ارسال ایمیل به مهمانان بدون دخالت مالک",
        "permlab_writeCallLog": "نوشتن گزارش تماس",
        "permlab_writeContacts": "تغییر مخاطبین",
        "permlab_writeGeolocationPermissions": "تغییر مجوزهای مکان جغرافیایی مرورگر",
        "permlab_writeHistoryBookmarks": "نوشتن نشانک‌های وب و سابقه",
        "permlab_writeSettings": "تغییر تنظیمات سیستم",
        "permlab_writeSyncSettings": "تغییر وضعیت همگام‌سازی بین فعال و غیرفعال"
    },
    "sidebars": {
        "donate": {
            "bank_transfer_name": "نام",
            "bitcoin_alt": "اعانه با بیت‌کوین",
            "flattr_alt": "اعانه با فلتر",
            "heading": "اعانه",
            "hellotux": "👕 تی‌شرت 👕 از",
            "hellotux_alt": "هلوتاکس",
            "hellotux_donation": "اف‌دروید به ازای هر لباس فروخته شده، ۳ یورو دریافت خواهد کرد.",
            "liberapay_alt": "اعانه با لیبراپی",
            "litecoin_alt": "اعانه با لایت‌کوین",
            "paypal_alt": "اعانه با پی‌پل",
            "powered_by_donations": "اف‌دروید از کمک های شما نیرو می‌گیرد!",
            "via_bank_transfer": "حوالهٔ بانکی"
        },
        "lang": {
            "change": "تغییر"
        },
        "last_updated": {
            "heading": "آخرین به‌روز رسانی"
        },
        "latest_packages": {
            "heading": "جدیدترین کاره‌ها"
        },
        "news": {
            "heading": "اخبار"
        },
        "search": {
            "heading": "یافتن کاره‌ها",
            "noscript": "برای فعّال‌سازی نیاز به جاوا اسکریپت است",
            "search": "جست‌وجو"
        }
    }
}
